{
  "version": "1.0.0-*",

  "dependencies": {
    "Microsoft.AspNetCore.Cryptography.KeyDerivation": "1.0.0",
    "NETStandard.Library": "1.6.0"
  },

  "frameworks": {
    "netstandard1.6": {
      "imports": "dnxcore50"
    },
    "netcoreapp1.0": {
      "imports": [
        "dotnet5.6",
        "portable-net45+win8"
      ]
    }
  }
}
